<svg width="10" height="11" viewBox="0 0 10 11" fill="none" xmlns="http://www.w3.org/2000/svg">
<path d="M7.66578 1.93481H2.42352C1.94098 1.93481 1.5498 2.32599 1.5498 2.80853V8.05079C1.5498 8.53333 1.94098 8.9245 2.42352 8.9245H7.66578C8.14832 8.9245 8.53949 8.53333 8.53949 8.05079V2.80853C8.53949 2.32599 8.14832 1.93481 7.66578 1.93481Z" stroke="#313131" stroke-width="0.776632" stroke-linejoin="round"/>
</svg>
